PyMOL>run /isilon/BL32XU/BLsoft/PPPP/24.NABE/loadmtz.py
PyMOL>bg_color white
PyMOL>set ignore_case_chain
 Setting: ignore_case_chain set to on.
PyMOL>set mesh_width, 0.5
 Setting: mesh_width set to 0.50000.
PyMOL>set ray_trace_fog, 1
 Setting: ray_trace_fog set to 1.00000.
PyMOL>set depth_cue, 1
 Setting: depth_cue set to on.
PyMOL>set fog_start, 0.65
 Setting: fog_start set to 0.65000.
PyMOL>set ray_shadows, 0
 Setting: ray_shadow set to off.
PyMOL>set ray_opaque_background, 1
 Setting: ray_opaque_background set to 1.
PyMOL>load /isilon/BL32XU/BLsoft/PPPP/24.NABE/Asada/ligand.pdb, refined
 ObjectMolecule: Read crystal symmetry information.
 CmdLoad: PDB-string loaded into object "refined", state 1.
PyMOL>#as stick
PyMOL>#as ribbon
PyMOL>#util.color_chains("elem C")
PyMOL>#set ribbon_color, red
PyMOL>util.chainbow("refined")
PyMOL>print run_loadmtz("/isilon/users/khirata/khirata/180921-Asada-Helix/_kamoproc_180627/merge_180628-AT2_zennbunose/blend_3.2A_framecc_b+B_1deg/cluster_3701/run_01/3.6A_500.0/ccp4/ref_fofc_001.mtz", "all", labels="FOFCWT,PHFOFCWT", isolevel=2.0)
(0.08589818227911912, 0.2673493227764298) (0.06455084608205333, 0.14279550451336426) (-0.02106261660523387, 0.4433396645243751)
 Warning: The behavior of "unset" for global numeric settings will change.
<B><FONT COLOR="#FF0000"><!--SUMMARY_BEGIN-->
<html> <!-- CCP4 HTML LOGFILE -->
<hr>
<!--SUMMARY_END--></FONT></B>
<B><FONT COLOR="#FF0000"><!--SUMMARY_BEGIN-->
<pre>
 
 ###############################################################
 ###############################################################
 ###############################################################
 ### CCP4 7.0.047: FFTBIG           version 7.0.047 :         ##
 ###############################################################
 User: unknown  Run date: 31/ 3/2019 Run time: 12:48:31 


 Please reference: Collaborative Computational Project, Number 4. 2011.
 "Overview of the CCP4 suite and current developments". Acta Cryst. D67, 235-242.
 as well as any specific reference in the program write-up.

<!--SUMMARY_END--></FONT></B>
 Data line--- labin F1=FOFCWT PHI=PHFOFCWT
 Data line--- xyzlim asu
 Map limits will be set to the CCP4 asymmetric unit
 Data line--- grid sample 3
 Data line--- end

 OPENED INPUT MTZ FILE 
 Logical Name: HKLIN   Filename: /isilon/users/khirata/khirata/180921-Asada-Helix/_kamoproc_180627/merge_180628-AT2_zennbunose/blend_3.2A_framecc_b+B_1deg/cluster_3701/run_01/3.6A_500.0/ccp4/ref_fofc_001.mtz 

 * Title:

 None

 * Base dataset:

        0 HKL_base
          HKL_base
          HKL_base

 * Number of Datasets = 4

 * Dataset ID, project/crystal/dataset names, cell dimensions, wavelength:

        1 project
          crystal
          Original-experimental-data-mapped-to-asu
            102.5400  426.4700   52.7000   90.0000   90.0000   90.0000
             1.00000
        2 project
          crystal
          Experimental-data-used-in-refinement
            102.5400  426.4700   52.7000   90.0000   90.0000   90.0000
             1.00000
        3 project
          crystal
          Model-structure-factors-(bulk-solvent-and-all-scales-included)
            102.5400  426.4700   52.7000   90.0000   90.0000   90.0000
             1.00000
        4 project
          crystal
          Fourier-map-coefficients
            102.5400  426.4700   52.7000   90.0000   90.0000   90.0000
             1.00000

 * Number of Columns = 16

 * Number of Reflections = 19799

 * Missing value set to NaN in input mtz file

 * HISTORY for current MTZ file :


 * Column Labels :

 H K L I-obs SIGI-obs R-free-flags F-obs-filtered SIGF-obs-filtered F-model PHIF-model 2FOFCWT PH2FOFCWT 2FOFCWT_no_fill PH2FOFCWT_no_fill FOFCWT PHFOFCWT

 * Column Types :

 H H H J Q I F Q F P F P F P F P

 * Associated datasets :

 0 0 0 1 1 1 2 2 3 3 4 4 4 4 4 4

 * Cell Dimensions : (obsolete - refer to dataset cell dimensions above)

  102.5400  426.4700   52.7000   90.0000   90.0000   90.0000 

 *  Resolution Range :

    0.00002    0.09766     (    213.235 -      3.200 A )

 * Sort Order :

      0     0     0     0     0

 * Space group = 'C2221' (number     20)

 Map cell is set to:  102.54  426.47   52.70   90.00   90.00   90.00
/oys/xtal/ccp4/ccp4-7.0/bin/fft hklin /isilon/users/khirata/khirata/180921-Asada-Helix/_kamoproc_180627/merge_180628-AT2_zennbunose/blend_3.2A_framecc_b+B_1deg/cluster_3701/run_01/3.6A_500.0/ccp4/ref_fofc_001.mtz mapout ref_fofc_001.ccp4
 Use "set normalize_ccp4_maps, 0" to ensure consistent behavior in future PyMOL versions.PyMOL>python

 ** The limits of the map have been set to those of
 the CCP4 asymmetric unit for appropriate spacegroup

 For map spacegroup   20 these limits are:

    Min X   Max X   Min Y   Max Y   Min Z   Max Z
    0.000   0.500   0.000   0.250   0.000   1.000

 expressed in fractional coordinates and with x,y,z
 referring to the unpermutated axes.

  FREE column NOT assigned


 Coefficients used for Fourier calculation:-
 *******************************************


 Fourier synthesis: ( k1 * F1) exp( i PHI)

    F1   =  FOFCWT
    PHI  =  PHFOFCWT                      



 Resolution limits:    213.24     3.20
 Scale & B for F1 :    1.00000  0.00000

 *  F used = Scale * exp(- B * (sin theta/lambda)**2);  ** Scale and B applied to F BEFORE squaring for Patterson  **


 *** No reflections excluded ***




 Number of symmetry operations = 4 Space-group for FFT =   1  True space-group =  20 List terms gt     0

 Axis order in map: fast=Y,  medium= X,  slow(section)= Z


 Permutation of axes: (program=input)  x= X,  y= Z,  z= Y

 Before permutation :
           Maximum indices hkl ...................   32  133   16
           Sampling intervals on xyz .............   96  400   48
           Map limits in grid points on xyz ......    0   48       0  100       0   47

 Binary map will be written to stream   1

 Data is assumed to be unsorted
 After permutation :
           Maximum indices hkl ...................   32   16  133
           Sampling intervals on xyz .............   96   48  400
           Map limits in grid points on xyz ......    0   48       0   47       0  100






                              Fourier synthesis for space-group P1

  Buffer size =     1852416



  ****  Largest F Value *** Reflection   2  4  1        5601.83

                                         Mean F          248.43

      77660 Structure factors used out of 19729 on the input file

 Logical Name: MAPOUT   Filename: ref_fofc_001.ccp4 

File name for output map file on unit   1 : ref_fofc_001.ccp4
logical name MAPOUT

PyMOL>while 1:
 F000 =    0.000E+00          V =    2.305E+06

 Section axis is Z

 Binary output has Y running fastest, X next
  Section Z =   0 minimum rho =        -0.2269 at X =  20 Y =  36 maximum rho =         0.2562 at X =  12 Y =  70
  Section Z =   1 minimum rho =        -0.2492 at X =  43 Y =  91 maximum rho =         0.2133 at X =  32 Y =  41
  Section Z =   2 minimum rho =        -0.2599 at X =  26 Y =  91 maximum rho =         0.2609 at X =  30 Y = 100
  Section Z =   3 minimum rho =        -0.2304 at X =  39 Y =  84 maximum rho =         0.2376 at X =  17 Y =  57
  Section Z =   4 minimum rho =        -0.2924 at X =  18 Y =  47 maximum rho =         0.3166 at X =  15 Y =  37
  Section Z =   5 minimum rho =        -0.3045 at X =  18 Y =  47 maximum rho =         0.4491 at X =  15 Y =  37
  Section Z =   6 minimum rho =        -0.2483 at X =  17 Y =  48 maximum rho =         0.4663 at X =  16 Y =  39
  Section Z =   7 minimum rho =        -0.2273 at X =  11 Y =  92 maximum rho =         0.4392 at X =  16 Y =  42
  Section Z =   8 minimum rho =        -0.2618 at X =  22 Y =  85 maximum rho =         0.4247 at X =  15 Y =  42
  Section Z =   9 minimum rho =        -0.2853 at X =  22 Y =  85 maximum rho =         0.4315 at X =  15 Y =  42
  Section Z =  10 minimum rho =        -0.2166 at X =  22 Y =  85 maximum rho =         0.4008 at X =  15 Y =  43
  Section Z =  11 minimum rho =        -0.2328 at X =  23 Y =  88 maximum rho =         0.3825 at X =  16 Y =  46
  Section Z =  12 minimum rho =        -0.2290 at X =   9 Y =  20 maximum rho =         0.4666 at X =  16 Y =  46
  Section Z =  13 minimum rho =        -0.2370 at X =   7 Y =  42 maximum rho =         0.3914 at X =  16 Y =  47
  Section Z =  14 minimum rho =        -0.2499 at X =   7 Y =  42 maximum rho =         0.3361 at X =  17 Y =  48
  Section Z =  15 minimum rho =        -0.2519 at X =   2 Y =  19 maximum rho =         0.2456 at X =  20 Y =  45
  Section Z =  16 minimum rho =        -0.2285 at X =  17 Y =  10 maximum rho =         0.1984 at X =  14 Y =  21
  Section Z =  17 minimum rho =        -0.2177 at X =  14 Y =  43 maximum rho =         0.2352 at X =  13 Y =   7
  Section Z =  18 minimum rho =        -0.2195 at X =   9 Y =  72 maximum rho =         0.2363 at X =  23 Y =  29
  Section Z =  19 minimum rho =        -0.2478 at X =  29 Y =  38 maximum rho =         0.2040 at X =  17 Y =  12
  Section Z =  20 minimum rho =        -0.2570 at X =  29 Y =  38 maximum rho =         0.1877 at X =  17 Y =  13
  Section Z =  21 minimum rho =        -0.2284 at X =  47 Y =  68 maximum rho =         0.2281 at X =  12 Y =  46
  Section Z =  22 minimum rho =        -0.1768 at X =  34 Y =  80 maximum rho =         0.2441 at X =  35 Y =  92
  Section Z =  23 minimum rho =        -0.2198 at X =  34 Y =  80 maximum rho =         0.2300 at X =  25 Y =  85
  Section Z =  24 minimum rho =        -0.2165 at X =  32 Y =  54 maximum rho =         0.2317 at X =   8 Y = 100
  Section Z =  25 minimum rho =        -0.2755 at X =  38 Y =  55 maximum rho =         0.2410 at X =  45 Y =  63
  Section Z =  26 minimum rho =        -0.2254 at X =  38 Y =  54 maximum rho =         0.2609 at X =  18 Y = 100
  Section Z =  27 minimum rho =        -0.2727 at X =  31 Y =  67 maximum rho =         0.2478 at X =  23 Y =  98
  Section Z =  28 minimum rho =        -0.2648 at X =   6 Y = 100 maximum rho =         0.2455 at X =  23 Y =  98
  Section Z =  29 minimum rho =        -0.2456 at X =  27 Y =  98 maximum rho =         0.2234 at X =   7 Y =  62
  Section Z =  30 minimum rho =        -0.2305 at X =  35 Y =  87 maximum rho =         0.2312 at X =   9 Y =  43
  Section Z =  31 minimum rho =        -0.2292 at X =  37 Y =  60 maximum rho =         0.2169 at X =  25 Y = 100
  Section Z =  32 minimum rho =        -0.1982 at X =  18 Y =  67 maximum rho =         0.2525 at X =  41 Y =  97
  Section Z =  33 minimum rho =        -0.2128 at X =  42 Y =  81 maximum rho =         0.2043 at X =  28 Y =  52
  Section Z =  34 minimum rho =        -0.1998 at X =   8 Y =  96 maximum rho =         0.2196 at X =  28 Y =  52
  Section Z =  35 minimum rho =        -0.2011 at X =  42 Y =   5 maximum rho =         0.2369 at X =  27 Y =  83
  Section Z =  36 minimum rho =        -0.2090 at X =  30 Y =  91 maximum rho =         0.2222 at X =  40 Y =  90
  Section Z =  37 minimum rho =        -0.2313 at X =  22 Y =  65 maximum rho =         0.2587 at X =   4 Y =  11
  Section Z =  38 minimum rho =        -0.2103 at X =  22 Y =  64 maximum rho =         0.2663 at X =  13 Y =  41
  Section Z =  39 minimum rho =        -0.2288 at X =  20 Y =  14 maximum rho =         0.2446 at X =  13 Y =  41
  Section Z =  40 minimum rho =        -0.2025 at X =  19 Y =   9 maximum rho =         0.2118 at X =  21 Y =  85
  Section Z =  41 minimum rho =        -0.1923 at X =  31 Y =   4 maximum rho =         0.2404 at X =  42 Y =  99
  Section Z =  42 minimum rho =        -0.2381 at X =  43 Y =  84 maximum rho =         0.2592 at X =  26 Y =  90
  Section Z =  43 minimum rho =        -0.2623 at X =  43 Y =  84 maximum rho =         0.2402 at X =  27 Y =  89
  Section Z =  44 minimum rho =        -0.2054 at X =   9 Y =  42 maximum rho =         0.2361 at X =  43 Y =  93
  Section Z =  45 minimum rho =        -0.2074 at X =   8 Y =  39 maximum rho =         0.2615 at X =  32 Y =  61
  Section Z =  46 minimum rho =        -0.2191 at X =   5 Y =  27 maximum rho =         0.3206 at X =  32 Y =  60
  Section Z =  47 minimum rho =        -0.2461 at X =   5 Y =  27 maximum rho =         0.3361 at X =  21 Y =  58


 Overall maximum rho =          0.4666 on section Z =  12 at X =  16 Y =  46


 Overall minimum rho =         -0.3045 on section Z =   5 at X =  18 Y =  47

  Average density on this map is         -0.00002327

 Logical Name: MAPOUT   Filename: ref_fofc_001.ccp4 

File name for input map file on unit   1 : ref_fofc_001.ccp4
file size 951872 ; logical name MAPOUT



           Number of columns, rows, sections ...............  101   49   48
           Map mode ........................................    2
           Start and stop points on columns, rows, sections     0  100    0   48    0   47
           Grid sampling on x, y, z ........................   96  400   48
           Cell dimensions .................................  102.5400   426.4700    52.7000    90.0000    90.0000    90.0000
           Fast, medium, slow axes .........................    Y    X    Z
           Minimum density .................................    -0.30452
           Maximum density .................................     0.46655
           Mean density ....................................    -0.00002
           Rms deviation from mean density .................     0.06292
           Space-group .....................................   20
           Number of titles ................................    1


     Labels:                            
   Map from fft


<B><FONT COLOR="#FF0000"><!--SUMMARY_BEGIN-->
 FFTBIG:  Normal termination
Times: User:       0.3s System:    0.0s Elapsed:     0:00  
</pre>
</html>
<!--SUMMARY_END--></FONT></B>
<B><FONT COLOR="#FF0000"><!--SUMMARY_BEGIN-->
<html> <!-- CCP4 HTML LOGFILE -->
<hr>
<!--SUMMARY_END--></FONT></B>
<B><FONT COLOR="#FF0000"><!--SUMMARY_BEGIN-->
<pre>
 
 ###############################################################
 ###############################################################
 ###############################################################
 ### CCP4 7.0.047: mapmask          version 7.0.047 :         ##
 ###############################################################
 User: unknown  Run date: 31/ 3/2019 Run time: 12:48:31 


 Please reference: Collaborative Computational Project, Number 4. 2011.
 "Overview of the CCP4 suite and current developments". Acta Cryst. D67, 235-242.
 as well as any specific reference in the program write-up.

<!--SUMMARY_END--></FONT></B>
 Data line--- scale sigma
 Data line--- end

 Logical Name: MAPIN   Filename: ref_fofc_001.ccp4 

File name for input map file on unit   1 : ref_fofc_001.ccp4
file size 951872 ; logical name MAPIN



           Number of columns, rows, sections ...............  101   49   48
           Map mode ........................................    2
           Start and stop points on columns, rows, sections     0  100    0   48    0   47
           Grid sampling on x, y, z ........................   96  400   48
           Cell dimensions .................................  102.5400   426.4700    52.7000    90.0000    90.0000    90.0000
           Fast, medium, slow axes .........................    Y    X    Z
           Minimum density .................................    -0.30452
           Maximum density .................................     0.46655
           Mean density ....................................    -0.00002
           Rms deviation from mean density .................     0.06292
           Space-group .....................................   20
           Number of titles ................................    1


     Labels:                            
   Map from fft


 Unit cell volume: 2304583.3
 Orthogonalisation matrices:
  102.540  -0.000  -0.000           0.010   0.000   0.000
    0.000 426.470  -0.000           0.000   0.002   0.000
    0.000   0.000  52.700           0.000   0.000   0.019
 Real space metric tensor:      
   10514.5 181876.7   2777.3     -0.0     -0.0     -0.0
 Reciprocal space metric tensor:
  0.000095 0.000005 0.000360 0.000000 0.000000 0.000000

 INPUT  MASK EXTENT
         0 :   48         0 :  100         0 :   47
 OUTPUT MASK EXTENT
         0 :   48         0 :  100         0 :   47


 MAP/MASK READ SUCCESSFUL



 EXTEND COPY  mode
 Spacegroup symmetry and cell repeat will not be imposed
 on the map.



 Logical Name: MAPOUT   Filename: ref_fofc_001.ccp4 

File name for output map file on unit   1 : ref_fofc_001.ccp4
logical name MAPOUT

    Cell .......... 102.54000 426.47000  52.70000  90.00000  90.00000  90.00000
    Space group ... 20
    Number of columns, rows, sections ........  101   49   48
    Start and stop points on cols, rows, secs.    0: 100    0:  48    0:  47
    Fast, medium, slow axes ..................    Y    X    Z
    Grid sampling on x, y, z .................   96  400   48
    Start and stop points on x, y, z .........    0:  48    0: 100    0:  47

<B><FONT COLOR="#FF0000"><!--SUMMARY_BEGIN-->
 mapmask:   (mapmask) - normal termination 
Times: User:       0.0s System:    0.0s Elapsed:     0:00  
</pre>
</html>
<!--SUMMARY_END--></FONT></B>
<B><FONT COLOR="#FF0000"><!--SUMMARY_BEGIN-->
<html> <!-- CCP4 HTML LOGFILE -->
<hr>
<!--SUMMARY_END--></FONT></B>
<B><FONT COLOR="#FF0000"><!--SUMMARY_BEGIN-->
<pre>
 
 ###############################################################
 ###############################################################
 ###############################################################
 ### CCP4 7.0.047: mapmask          version 7.0.047 :         ##
 ###############################################################
 User: unknown  Run date: 31/ 3/2019 Run time: 12:48:31 


 Please reference: Collaborative Computational Project, Number 4. 2011.
 "Overview of the CCP4 suite and current developments". Acta Cryst. D67, 235-242.
 as well as any specific reference in the program write-up.

<!--SUMMARY_END--></FONT></B>
 Data line--- xyzlim 0.086 0.267 0.065 0.143 -0.021 0.443
 Data line--- end

 Logical Name: MAPIN   Filename: ref_fofc_001.ccp4 

File name for input map file on unit   1 : ref_fofc_001.ccp4
file size 951872 ; logical name MAPIN



           Number of columns, rows, sections ...............  101   49   48
           Map mode ........................................    2
           Start and stop points on columns, rows, sections     0  100    0   48    0   47
           Grid sampling on x, y, z ........................   96  400   48
           Cell dimensions .................................  102.5400   426.4700    52.7000    90.0000    90.0000    90.0000
           Fast, medium, slow axes .........................    Y    X    Z
           Minimum density .................................    -4.83927
           Maximum density .................................     7.41512
           Mean density ....................................     0.00000
           Rms deviation from mean density .................     1.00000
           Space-group .....................................   20
           Number of titles ................................    1


     Labels:                            
   Map from fft


 Unit cell volume: 2304583.3
 Orthogonalisation matrices:
  102.540  -0.000  -0.000           0.010   0.000   0.000
    0.000 426.470  -0.000           0.000   0.002   0.000
    0.000   0.000  52.700           0.000   0.000   0.019
 Real space metric tensor:      
   10514.5 181876.7   2777.3     -0.0     -0.0     -0.0
 Reciprocal space metric tensor:
  0.000095 0.000005 0.000360 0.000000 0.000000 0.000000

 INPUT  MASK EXTENT
         0 :   48         0 :  100         0 :   47
 OUTPUT MASK EXTENT
         8 :   25        26 :   57        -1 :   21


 MAP/MASK READ SUCCESSFUL



 EXTEND XTAL  mode
 Spacegroup symmetry and cell repeat will be used to expand
 the map.



 Logical Name: MAPOUT   Filename: ref_fofc_001.ccp4 

File name for output map file on unit   1 : ref_fofc_001.ccp4
logical name MAPOUT

    Cell .......... 102.54000 426.47000  52.70000  90.00000  90.00000  90.00000
    Space group ... 20
    Number of columns, rows, sections ........   32   18   23
    Start and stop points on cols, rows, secs.   26:  57    8:  25   -1:  21
    Fast, medium, slow axes ..................    Y    X    Z
    Grid sampling on x, y, z .................   96  400   48
    Start and stop points on x, y, z .........    8:  25   26:  57   -1:  21

<B><FONT COLOR="#FF0000"><!--SUMMARY_BEGIN-->
 mapmask:   (mapmask) - normal termination 
Times: User:       0.0s System:    0.0s Elapsed:     0:00  
</pre>
</html>
<!--SUMMARY_END--></FONT></B>
"/oys/xtal/ccp4/ccp4-7.0/bin/mapmask" mapin "ref_fofc_001.ccp4" mapout "ref_fofc_001.ccp4"
"/oys/xtal/ccp4/ccp4-7.0/bin/mapmask" mapin "ref_fofc_001.ccp4" mapout "ref_fofc_001.ccp4"
    1:while 1:
None
    2: if any(map(lambda x: "msh_" in x, cmd.get_names())):
    3:  print "msh OK!"
    4:  break
    5: print "waiting.."
    6: time.sleep(1)
    7:
PyMOL>python end
msh OK!
PyMOL>#color grey50, msh*
PyMOL>#color density, msh*
PyMOL>color green, msh*
 Executive: Colored 1 object.
PyMOL>hide everything, (org or refined)
PyMOL>#hide everything, (org or refined) and not resn CYS resi 512
PyMOL>#hide everything, (org or refined) and not resi 512
PyMOL>#show spheres, i. 512 i. 551 i. 592 i. 694
PyMOL>show stick, (org or refined)
PyMOL>python
    1:for c in "A":
    2: #print cmd.align("refined and chain %s"%c)
    3: print cmd.set_view((\
    4:    -0.297890395,    0.192615643,    0.934971035,\
    5:     0.684920311,    0.725358844,    0.068785094,\
    6:    -0.664939344,    0.660872340,   -0.348007053,\
    7:    -0.000126556,   -0.000207768,  -95.317367554,\
    8:    16.035675049,   39.944671631,    9.819516182,\
    9:  -120.580986023,  311.214935303,  -20.000001907 ))
   10: print cmd.clip("slab", 60)
   11: print cmd.png("test.5s_%s.png"%c, ray=1)
   12:
PyMOL>python end
None
None
None
PyMOL>print cmd.get_names()
 Ray: render time: 0.15 sec. = 23348.1 frames/hour (0.15 sec. accum.).
['refined', 'ref_fofc_001', 'msh_ref_fofc_001']
PyMOL>quit
